Workshop Automated Content Analysis
…
word_scores <- coef(plenary_parties_ws) |> # Creates a vector of coefficients from the plenary_parties_ws object
  as_tibble(rownames = "word") |> # Converts the vector to a tibble with the rownames set to "word"
  rename(score = value) |> # Renames the value column to "score"
  left_join(top_words, by = "word") # Joins the top_words tibble to the word_scores tibble on the "word" column

word_scores  |>  
  arrange(-n)

# A tibble: 40,073 × 3
   word       score     n
   <chr>      <dbl> <int>
 1 dass        5.90 37657
 2 herr        4.64 14790
 3 frau        3.14 11744
 4 schon       4.40  8976
 5 bitte       1.61  8936
 6 ja          5.91  8871
 7 mehr        5.03  8828
 8 österreich  6.45  8022
 9 gibt        5.31  8005
10 ganz        4.28  7729
# ℹ 40,063 more rows

word_scores |> 
  arrange(-score)

# A tibble: 40,073 × 3
   word             score     n
   <chr>            <dbl> <int>
 1 1920erund           10     1
 2 a4                  10     3
 3 abdriftende         10     1
 4 abdulaziz           10    10
 5 abendlandes         10     6
 6 abgeordnetenwahl    10     1
 7 abgeputzt           10     1
 8 abgeschlagen        10     3
 9 abgeschreckt        10     1
10 abgesperrt          10     1
# ℹ 40,063 more rows

word_scores |> 
  arrange(score)

# A tibble: 40,073 × 3
   word  score     n
   <chr> <dbl> <int>
 1 100b      1    20
 2 100c      1    20
 3 10a       1     8
 4 123a      1     1
 5 124b      1     4
 6 12a       1     5
 7 136a      1     3
 8 137b      1     3
 9 137c      1     6
10 13a       1    11
# ℹ 40,063 more rows
…
Wordfish automatically scales all documents according to an underlying latent variable (the beta), which is assumed to correspond to the most interesting dimension in the data.

word_fish_scores <- coef(plenary_parties_wf)$features |> # Creates a vector of coefficients from the plenary_parties_ws object
  as_tibble(rownames = "word") |> # Converts the vector to a tibble with the rownames set to "word"
  left_join(top_words, by = "word")

word_fish_scores |> 
  arrange(-n)

# A tibble: 85,767 × 4
   word          beta   psi     n
   <chr>        <dbl> <dbl> <int>
 1 dass        0.0873  8.60 37657
 2 herr       -0.157   7.59 14790
 3 frau       -0.280   7.29 11744
 4 schon       0.0759  7.19  8976
 5 bitte      -0.891   6.58  8936
 6 ja          0.239   7.24  8871
 7 mehr        0.0631  7.17  8828
 8 österreich -0.0145  6.99  8022
 9 gibt        0.109   7.07  8005
10 ganz        0.0227  7.01  7729
# ℹ 85,757 more rows

word_fish_scores |> 
  arrange(-beta)

# A tibble: 85,767 × 4
   word                      beta   psi     n
   <chr>                    <dbl> <dbl> <int>
 1 kriegsmaterial            6.23 -3.56    10
 2 waffenembargo             5.58 -3.07    11
 3 außenwirtschaftsgesetz    5.49 -3.12     7
 4 kriegsmaterialgesetz      5.49 -3.12    10
 5 pistolen                  5.04 -2.71     7
 6 ankara                    4.89 -2.43     8
 7 false                     4.76 -2.32     8
 8 globalisierungsverlierer  4.76 -2.32     8
 9 bumsti                    4.76 -2.32     8
10 flag                      4.76 -2.32     9
# ℹ 85,757 more rows

word_fish_scores |> 
  arrange(beta)

# A tibble: 85,767 × 4
   word            beta   psi     n
   <chr>          <dbl> <dbl> <int>
 1 zeugenperson   -6.13 -5.18    32
 2 k.c            -5.70 -4.95    17
 3 fotograf       -5.61 -4.90    16
 4 zeitversetzt   -5.54 -4.20    30
 5 judo           -5.52 -4.86    15
 6 sitzungstag    -5.43 -3.52    52
 7 nationalrätin  -5.43 -4.13    28
 8 weinwirtschaft -5.39 -4.78    14
 9 schülergruppe  -5.20 -4.69    12
10 26a            -5.08 -4.63    11
# ℹ 85,757 more rows
…
It’s not as easy to look at, but will work for our purposes. Next, we need to select some independent variables. I use the 1,000 most prevalent words and turn our long format data into the wide format the regression function expects:

top_words_chr <- top_words |>
  slice_head(n = 1000) |>
  pull(word)

plenary_speeches_tidy_mc_dfm <- plenary_speeches_tidy_mc |> 
  filter(word %in% top_words_chr) |> 
  count(word, speech_id, day_nr) |> 
  pivot_wider(names_from = word, values_from = n, values_fill = 0)
plenary_speeches_tidy_mc_dfm

# A tibble: 14,154 × 1,002
   speech_id day_nr     a    ab abgelehnt abgeordnete abgeordneten abgeordneter
       <int>  <int> <int> <int>     <int>       <int>        <int>        <int>
 1         7      0     1     0         0           0            1            0
 2        27      0     1     1         0           1            1            0
 3        66      0     2     0         0           0            0            0
 4        69     34    20     0         0           0           18            0
 5        70     34     2     0         0           1            3            0
 6        72     34     2     0         0           0            2            0
 7       132     34     8     0         0           0            7            0
 8       142     34     1     0         0           0            0            0
 9       181     34     1     0         0           0            0            0
10       183     34     2     0         0           0            2            0
# ℹ 14,144 more rows
# ℹ 994 more variables: abkommen <int>, abs <int>, abschaffung <int>,
#   abschließend <int>, absolut <int>, abstimmung <int>,
#   abänderungsantrag <int>, aktion <int>, aktuellen <int>, all <int>,
#   allein <int>, allerdings <int>, andererseits <int>, anfang <int>,
#   anfrage <int>, angenommen <int>, angesprochen <int>, angst <int>,
#   anliegen <int>, anschauen <int>, anspruch <int>, antrag <int>, …
…
model <- lm(day_nr ~ ., data = select(training_data, -speech_id))
# you can run summary for fun but it will print almost all words
# summary(model)

One interesting side effect of this is that the coefficients tell us which words can be used to predict an early or late speech:

coef_df <- coef(model) |> 
  as_tibble(rownames = "coef")|> 
  filter(coef != "(Intercept)")

coef_df |> 
  arrange(value)

# A tibble: 1,000 × 2
   coef               value
   <chr>              <dbl>
 1 verzichtet         -55.2
 2 nächster           -47.7
 3 strolz             -47.3
 4 folgenden          -40.8
 5 regierungsprogramm -35.3
 6 samt               -34.7
 7 wünscht            -34.4
 8 liste              -33.9
 9 gewissen           -27.0
10 polizei            -27.0
# ℹ 990 more rows

Some interesting words that predict earlier tweets are “strolz” and “polizei”.

coef_df |> 
  arrange(-value)

# A tibble: 1,000 × 2
   coef           value
   <chr>          <dbl>
 1 mündliche       60.8
 2 gelangt         60.0
 3 schlusswort     59.1
 4 ordnungsgemäß   44.3
 5 berichtigung    43.3
 6 entsprechendes  34.5
 7 hinsichtlich    33.9
 8 steuerreform    32.2
 9 sogleich        30.4
10 gearbeitet      30.1
# ℹ 990 more rows
…
