Workshop Automated Content Analysis
…
imdb_rec <- recipe(label ~ text, data = imdb) %>%
  step_tokenize(all_predictors()) %>%
  step_stopwords(language = "en") %>% 
  step_tokenfilter(all_predictors(), min_times = 3) %>%
  step_tf(all_predictors())

This was extremly fast, because nothing has actually been done yet. In the terminology of tidymodels, you just wrote a recipe, to actually do something, you also need to some “prepping” for the recipe and “baking” the training data:

imdb_rec %>% 
  prep(imdb) %>%
  bake(new_data = NULL) %>% 
  select(1:10)

# A tibble: 50,000 × 10
   label tf_text_a tf_text_about tf_text_after tf_text_all tf_text_also
   <fct>     <int>         <int>         <int>       <int>        <int>
 1 neg           3             3             0           2            0
 2 neg           3             1             0           0            0
 3 neg          19             1             1           2            3
 4 neg           4             1             0           0            0
 5 neg          19             1             0           2            0
 6 neg           4             0             0           1            0
 7 neg           6             1             0           2            1
 8 neg           8             3             0           1            0
 9 neg           4             0             0           0            0
10 neg           3             0             0           0            0
# ℹ 49,990 more rows
# ℹ 4 more variables: tf_text_an <int>, tf_text_and <int>, tf_text_any <int>,
#   tf_text_are <int>
…
