Workshop Automated Content Analysis
…
We can test that on some toy data to see what is going on:

toy_data <- tribble(
  ~id, ~text,
  1L, "I like cats. Cats are the best pets.",
  2L, "I like dogs. Dogs are the best pets."
)
toy_data |> 
  unnest_tokens("word", "text") |> 
  nest(words = c(word), .by = id) |>
  mutate(words = map(words, function(w) slide_windows(w, 3L))) |>
  unnest(words)

# A tibble: 36 × 3
      id word  window_id
   <int> <chr>     <int>
 1     1 i             1
 2     1 like          1
 3     1 cats          1
 4     1 like          2
 5     1 cats          2
 6     1 cats          2
 7     1 cats          3
 8     1 cats          3
 9     1 are           3
10     1 cats          4
# ℹ 26 more rows
…
if (!file.exists("data/speeches_pmi.rds")) {
  plan(multisession)  ## for parallel processing
  
  tidy_pmi <- nested_words |>
    mutate(words = future_map(words, function(w) slide_windows(w, 4L), .progress = TRUE)) |>
    unnest(words) |>
    unite(window_id, speech_id, window_id) |>
    pairwise_pmi(word, window_id)
  saveRDS(tidy_pmi, "data/speeches_pmi.rds")
} else {
  tidy_pmi <- readRDS("data/speeches_pmi.rds")
}
tidy_pmi

# A tibble: 2,800,816 × 3
   item1            item2       pmi
   <chr>            <chr>     <dbl>
 1 damen            geehrten  3.59 
 2 herren           geehrten  3.18 
 3 gemäß            geehrten -2.82 
 4 abs              geehrten -3.37 
 5 geschäftsordnung geehrten -2.34 
 6 präsidentin      geehrten  1.76 
 7 vergangenen      geehrten -1.26 
 8 sitzung          geehrten -0.199
 9 wahl             geehrten -0.429
10 neuen            geehrten -1.68 
# ℹ 2,800,806 more rows

To get to the embedding vectors of the words, we use singular value decomposition (SVD). SVD is a method for dimensionality reduction. In this case, we use widely_svd, which slightly obscures what dimensions will be reduced. Let’s make the data wide first to understand the step better:

tidy_pmi |> 
  pivot_wider(id_cols = item1, names_from = item2, values_from = pmi)

# A tibble: 4,620 × 4,621
   item1     geehrten  damen  herren  gemäß     abs geschäftsordnung präsidentin
   <chr>        <dbl>  <dbl>   <dbl>  <dbl>   <dbl>            <dbl>       <dbl>
 1 damen        3.59  NA      3.56   -2.62  -3.87             -1.38        1.42 
 2 herren       3.18   3.56  NA      -3.05  -4.30             -1.13        0.920
 3 gemäß       -2.82  -2.62  -3.05   NA      4.41              4.75       -1.48 
 4 abs         -3.37  -3.87  -4.30    4.41  NA                 4.34       -2.73 
 5 geschäft…   -2.34  -1.38  -1.13    4.75   4.34             NA          -0.405
 6 präsiden…    1.76   1.42   0.920  -1.48  -2.73             -0.405      NA    
 7 vergange…   -1.26  -0.781 -0.280  NA     -2.12             -0.403      -0.805
 8 sitzung     -0.199 -0.517 -0.0404  1.59   0.931             1.90       -2.27 
 9 wahl        -0.429 -0.824 -0.798   0.110  0.655             1.35        1.17 
10 neuen       -1.68  -1.17  -0.796  -0.484  0.0610           -2.21       -1.45 
# ℹ 4,610 more rows
# ℹ 4,613 more variables: vergangenen <dbl>, gesetzgebungsperiode <dbl>,
#   sitzung <dbl>, eröffnen <dbl>, wahl <dbl>, neuen <dbl>,
#   beziehungsweise <dbl>, präsidenten <dbl>, vorsitz <dbl>, führen <dbl>,
#   erste <dbl>, neu <dbl>, nationalrates <dbl>, anlässlich <dbl>,
#   möchte <dbl>, beginn <dbl>, erinnerung <dbl>, rufen <dbl>, bedeutung <dbl>,
#   wert <dbl>, unserer <dbl>, starken <dbl>, demokratie <dbl>, leben <dbl>, …
Essentially, we have a feature-feature-matrix, with one row and one column per feature and the PMI value of them occuring together in the cells of the matrix. SVD now reduces the dimensionality of the y-axis of the matrix, but tries to keep as much of the information as possible. The number of dimensions left are determined beforehand and we choose 100 here.

tidy_word_vectors <- tidy_pmi |>
  widely_svd(
    item = item1, 
    feature = item2, 
    value = pmi,
    nv = 100, 
    maxit = 1000
  )

tidy_word_vectors |> 
  pivot_wider(id_cols = item1, names_from = dimension, values_from = value)

# A tibble: 4,620 × 101
   item1        `1`     `2`      `3`      `4`     `5`      `6`      `7`      `8`
   <chr>      <dbl>   <dbl>    <dbl>    <dbl>   <dbl>    <dbl>    <dbl>    <dbl>
 1 damen   -0.0808  -0.0496  0.0166  -0.00670 -0.0135 -0.0295   0.00177 -0.0516 
 2 herren  -0.0806  -0.0443  0.00937  0.00556 -0.0215 -0.0353   0.0244  -0.0569 
 3 gemäß    0.0125  -0.0392 -0.0397  -0.0520  -0.0452  0.00684 -0.0400  -0.0414 
 4 abs      0.00980 -0.0527 -0.0362  -0.0706  -0.0450  0.0158  -0.0599  -0.0615 
 5 geschä…  0.0104  -0.0239 -0.0306  -0.0255  -0.0141  0.00519 -0.00201 -0.0394 
 6 präsid… -0.0150  -0.0643 -0.0218  -0.0335   0.0207 -0.00776 -0.00680  0.00674
 7 vergan…  0.0177  -0.0214 -0.00993  0.00954 -0.0174  0.0239   0.0398   0.0171 
 8 sitzung  0.00621 -0.0413 -0.0407  -0.0220  -0.0287  0.0143   0.0372  -0.0302 
 9 wahl     0.0186  -0.0243 -0.0166   0.00987 -0.0169 -0.00256  0.0106  -0.0195 
10 neuen    0.00908 -0.0420  0.00974 -0.0158  -0.0163 -0.0147   0.0180   0.00822
# ℹ 4,610 more rows
# ℹ 92 more variables: `9` <dbl>, `10` <dbl>, `11` <dbl>, `12` <dbl>,
#   `13` <dbl>, `14` <dbl>, `15` <dbl>, `16` <dbl>, `17` <dbl>, `18` <dbl>,
#   `19` <dbl>, `20` <dbl>, `21` <dbl>, `22` <dbl>, `23` <dbl>, `24` <dbl>,
#   `25` <dbl>, `26` <dbl>, `27` <dbl>, `28` <dbl>, `29` <dbl>, `30` <dbl>,
#   `31` <dbl>, `32` <dbl>, `33` <dbl>, `34` <dbl>, `35` <dbl>, `36` <dbl>,
#   `37` <dbl>, `38` <dbl>, `39` <dbl>, `40` <dbl>, `41` <dbl>, `42` <dbl>, …
…
